{
  "version": "1.0",
  "truncation": null,
  "padding": null,
  "added_tokens": [
    {
      "id": 0,
      "content": "[UNK]",
      "single_word": false,
      "lstrip": false,
      "rstrip": false,
      "normalized": false,
      "special": true
    }
  ],
  "normalizer": null,
  "pre_tokenizer": null,
  "post_processor": null,
  "decoder": null,
  "model": {
    "type": "BPE",
    "dropout": null,
    "unk_token": "[UNK]",
    "continuing_subword_prefix": null,
    "end_of_word_suffix": null,
    "fuse_unk": false,
    "vocab": {
      "[UNK]": 0,
      "\u0000": 1,
      "+": 2,
      "-": 3,
      "0": 4,
      "1": 5,
      "2": 6,
      "3": 7,
      "4": 8,
      "5": 9,
      "6": 10,
      "7": 11,
      "8": 12,
      "9": 13,
      "=": 14,
      "=1": 15,
      "\u00003": 16,
      "\u00005": 17,
      "-1": 18,
      "\u00001": 19,
      "=3": 20,
      "+1": 21,
      "=2": 22,
      "\u00002": 23,
      "\u00006": 24,
      "=4": 25,
      "=5": 26,
      "\u00004": 27,
      "=6": 28,
      "-2": 29,
      "+2": 30,
      "82": 31,
      "=7": 32,
      "\u00009": 33,
      "\u00007": 34,
      "=9": 35,
      "-3": 36,
      "81": 37,
      "+3": 38,
      "85": 39,
      "86": 40,
      "87": 41,
      "83": 42,
      "41": 43,
      "89": 44,
      "80": 45,
      "42": 46,
      "47": 47,
      "40": 48,
      "43": 49,
      "46": 50,
      "59": 51,
      "57": 52,
      "20": 53,
      "60": 54,
      "49": 55,
      "62": 56,
      "67": 57,
      "11": 58,
      "55": 59,
      "30": 60,
      "69": 61,
      "79": 62,
      "50": 63,
      "10": 64,
      "53": 65,
      "52": 66,
      "70": 67,
      "12": 68,
      "63": 69,
      "84": 70,
      "77": 71,
      "90": 72,
      "51": 73,
      "54": 74,
      "72": 75,
      "33": 76,
      "56": 77,
      "92": 78,
      "13": 79,
      "44": 80,
      "16": 81,
      "19": 82,
      "00": 83,
      "88": 84,
      "\u000082": 85,
      "66": 86,
      "73": 87,
      "22": 88,
      "39": 89,
      "58": 90,
      "97": 91,
      "17": 92,
      "23": 93,
      "48": 94,
      "93": 95,
      "=10": 96,
      "15": 97,
      "76": 98,
      "4+": 99,
      "96": 100,
      "45": 101,
      "-6": 102,
      "99": 103,
      "02": 104,
      "03": 105,
      "14": 106,
      "18": 107,
      "5-": 108,
      "\u000063": 109,
      "+6": 110,
      "26": 111,
      "37": 112,
      "\u000033": 113,
      "27": 114,
      "\u0000641": 115,
      "-7": 116,
      "36": 117,
      "5+": 118,
      "-10": 119,
      "29": 120,
      "\u000067": 121,
      "+10": 122,
      "+7": 123,
      "-4": 124,
      "\u000039": 125,
      "32": 126,
      "=8": 127,
      "\u000089": 128,
      "\u0000411": 129,
      "6-": 130,
      "\u000052": 131,
      "\u000027": 132,
      "+4": 133,
      "4-": 134,
      "\u000042": 135,
      "=12": 136,
      "1-": 137,
      "\u000081": 138,
      "=13": 139,
      "\u000012": 140,
      "5-1": 141,
      "\u000053": 142,
      "=20": 143,
      "1+": 144,
      "4+1": 145,
      "=81": 146,
      "=82": 147,
      "7-": 148,
      "8-": 149,
      "=30": 150,
      "\u000023": 151,
      "\u000021": 152,
      "91": 153,
      "=83": 154,
      "95": 155,
      "=40": 156,
      "94": 157,
      "8+": 158,
      "\u000020": 159,
      "=-": 160,
      "=80": 161,
      "=50": 162,
      "6+": 163,
      "98": 164,
      "\u000041": 165,
      "5+1": 166,
      "=33": 167,
      "\u000051": 168,
      "\u000010": 169,
      "5-2": 170,
      "\u000073": 171,
      "=32": 172,
      "\u000085": 173,
      "=23": 174,
      "\u000086": 175,
      "\u00006386": 176,
      "\u000070": 177,
      "=89": 178,
      "68": 179,
      "3+": 180,
      "=22": 181,
      "+20": 182,
      "9+": 183,
      "=85": 184,
      "61": 185,
      "=86": 186,
      "=60": 187,
      "2-": 188,
      "64": 189,
      "7+": 190,
      "=87": 191,
      "\u000083": 192,
      "3-": 193,
      "=70": 194,
      "\u0000560": 195,
      "\u000019": 196,
      "-12": 197,
      "-20": 198,
      "71": 199,
      "5=1": 200,
      "\u000014": 201,
      "2+": 202,
      "\u000031": 203,
      "\u000016": 204,
      "5+2": 205,
      "78": 206,
      "74": 207,
      "\u000096": 208,
      "\u000011": 209,
      "9-": 210,
      "6-1": 211,
      "=-1": 212,
      "\u0000392": 213,
      "=39": 214,
      "=43": 215,
      "\u0000620": 216,
      "=42": 217,
      "=53": 218,
      "7-1": 219,
      "65": 220,
      "4+2": 221,
      "=52": 222,
      "=49": 223,
      "1-1": 224,
      "-30": 225,
      "\u000040": 226,
      "75": 227,
      "\u000062": 228,
      "34": 229,
      "8=1": 230,
      "4+3": 231,
      "5+3": 232,
      "=37": 233,
      "+12": 234,
      "\u0000770": 235,
      "=59": 236,
      "=29": 237,
      "\u000099": 238,
      "\u0000567": 239,
      "8-1": 240,
      "=36": 241,
      "=90": 242,
      "0+": 243,
      "=11": 244,
      "=62": 245,
      "=63": 246,
      "\u00008": 247,
      "=19": 248,
      "7+1": 249,
      "31": 250,
      "0-": 251,
      "=57": 252,
      "=-2": 253,
      "1-2": 254,
      "\u000013": 255,
      "=69": 256,
      "6-2": 257,
      "=31": 258,
      "=93": 259,
      "=27": 260,
      "\u0000410": 261,
      "8+1": 262,
      "1+1": 263,
      "9+1": 264,
      "\u00008285": 265,
      "6+1": 266,
      "\u000032": 267,
      "=21": 268,
      "=47": 269,
      "7-2": 270,
      "=56": 271,
      "=26": 272,
      "=72": 273,
      "38": 274,
      "+30": 275,
      "=41": 276,
      "\u0000672": 277,
      "=79": 278,
      "=16": 279,
      "+5": 280,
      "=17": 281,
      "\u000017": 282,
      "=73": 283,
      "6-3": 284,
      "=92": 285,
      "-5": 286,
      "4-1": 287,
      "=67": 288,
      "=46": 289,
      "35": 290,
      "\u0000312": 291,
      "3+1": 292,
      "9+2": 293,
      "\u0000516": 294,
      "\u000092": 295,
      "\u0000383": 296,
      "\u0000539": 297,
      "\u000035": 298,
      "5-3": 299,
      "=51": 300,
      "8-2": 301,
      "\u0000543": 302,
      "=77": 303,
      "\u000029": 304,
      "\u0000780": 305,
      "=66": 306,
      "\u000057": 307,
      "1+2": 308,
      "=97": 309,
      "\u00008277": 310,
      "\u00003966": 311,
      "\u0000769": 312,
      "=96": 313,
      "4=1": 314,
      "3-1": 315,
      "\u0000562": 316,
      "\u0000100": 317,
      "\u000048": 318,
      "\u0000982": 319,
      "1=1": 320,
      "\u0000787": 321,
      "\u0000260": 322,
      "\u00007033": 323,
      "=61": 324,
      "\u000036": 325,
      "28": 326,
      "=76": 327,
      "\u000034": 328,
      "\u000037": 329,
      "\u0000379": 330,
      "\u0000679": 331,
      "\u000095": 332,
      "\u00006754": 333,
      "\u000050": 334,
      "7-3": 335,
      "\u000097": 336,
      "9-1": 337,
      "3+2": 338,
      "=35": 339,
      "=34": 340,
      "4-2": 341,
      "8+2": 342,
      "\u0000953": 343,
      "=100": 344,
      "2-1": 345,
      "\u000071": 346,
      "\u0000559": 347,
      "6+2": 348,
      "\u00008284": 349,
      "\u0000662": 350,
      "5=2": 351,
      "2+1": 352,
      "1-3": 353,
      "\u00006386+": 354,
      "\u0000685": 355,
      "\u0000322": 356,
      "21": 357,
      "4=2": 358,
      "=71": 359,
      "\u00003381": 360,
      "\u000025": 361,
      "=-3": 362,
      "8=2": 363,
      "\u000056": 364,
      "3+3": 365,
      "0-1": 366,
      "\u0000792": 367,
      "\u0000546": 368,
      "9+3": 369,
      "\u0000920": 370,
      "5=4": 371,
      "0+1": 372,
      "562": 373,
      "\u000047": 374,
      "5=3": 375,
      "8=4": 376,
      "\u0000990": 377,
      "7+2": 378,
      "\u0000247": 379,
      "\u0000397": 380,
      "4=4": 381,
      "4=3": 382,
      "\u00005258": 383,
      "5=5": 384,
      "\u0000157": 385,
      "\u0000957": 386,
      "1=2": 387,
      "4=5": 388,
      "8=5": 389,
      "\u000061": 390,
      "\u00006381": 391,
      "8=3": 392,
      "\u000046": 393,
      "\u00005385": 394,
      "1+3": 395,
      "\u0000942": 396,
      "3-2": 397,
      "\u0000549": 398,
      "\u00001442": 399,
      "\u000060": 400,
      "4-3": 401,
      "\u000087": 402,
      "=99": 403,
      "\u00007348": 404,
      "\u000030": 405,
      "\u00005179": 406,
      "\u0000382": 407,
      "=91": 408,
      "\u0000540": 409,
      "\u0000810": 410,
      "\u0000313": 411,
      "\u0000243": 412,
      "\u000055": 413,
      "=14": 414,
      "8+3": 415,
      "+9": 416,
      "1=4": 417,
      "-40": 418,
      "\u0000489": 419,
      "\u000022": 420,
      "\u0000987": 421,
      "+40": 422,
      "-9": 423,
      "\u0000590": 424,
      "\u000080": 425,
      "-41": 426,
      "1=3": 427,
      "1=5": 428,
      "6+3": 429,
      "9-2": 430,
      "5=6": 431,
      "0-2": 432,
      "=15": 433,
      "\u0000569": 434,
      "\u0000993": 435,
      "\u0000680": 436,
      "8-3": 437,
      "-42": 438,
      "4=6": 439,
      "+41": 440,
      "\u0000762": 441,
      "\u0000119": 442,
      "+42": 443,
      "\u0000112": 444,
      "=25": 445,
      "2+2": 446,
      "-43": 447,
      "\u0000997": 448,
      "8=6": 449,
      "\u000090": 450,
      "+43": 451,
      "\u0000160": 452,
      "\u0000933": 453,
      "6=1": 454,
      "\u0000111": 455,
      "\u000045": 456,
      "130": 457,
      "\u000049": 458,
      "5=7": 459,
      "=24": 460,
      "\u0000222": 461,
      "6=4": 462,
      "2-2": 463,
      "\u00006220": 464,
      "3-3": 465,
      "\u0000642": 466,
      "4=7": 467,
      "=95": 468,
      "0+2": 469,
      "7+3": 470,
      "8=7": 471,
      "9=1": 472,
      "=84": 473,
      "\u0000120": 474,
      "\u0000472": 475,
      "1=6": 476,
      "=55": 477,
      "7=1": 478,
      "9-3": 479,
      "2+3": 480,
      "=94": 481,
      "\u0000359": 482,
      "\u0000246": 483,
      "\u0000463": 484,
      "9=4": 485,
      "\u0000755": 486,
      "\u00009130": 487,
      "-46": 488,
      "\u0000110": 489,
      "\u00002746": 490,
      "7=4": 491,
      "+46": 492,
      "\u0000390": 493,
      "6=2": 494,
      "\u0000630": 495,
      "\u000028": 496,
      "6=3": 497,
      "\u0000885": 498,
      "+47": 499,
      "=54": 500,
      "-47": 501,
      "\u000077": 502,
      "\u000078": 503,
      "\u0000786": 504,
      "\u0000323": 505,
      "\u0000423": 506,
      "\u0000230": 507,
      "5=9": 508,
      "9=3": 509,
      "\u0000659": 510,
      "\u0000159": 511,
      "\u0000167": 512,
      "+49": 513,
      "-49": 514,
      "7=3": 515,
      "24": 516,
      "\u0000790": 517,
      "\u0000319": 518,
      "9=2": 519,
      "\u0000520": 520,
      "=65": 521,
      "\u0000949": 522,
      "2-3": 523,
      "\u0000587": 524,
      "7=2": 525,
      "1=7": 526,
      "+50": 527,
      "-50": 528,
      "\u0000252": 529,
      "\u0000447": 530,
      "\u00007562": 531,
      "8=9": 532,
      "6=5": 533,
      "\u0000219": 534,
      "\u000043": 535,
      "\u0000197": 536,
      "3=1": 537,
      "9=5": 538,
      "25": 539,
      "=64": 540,
      "10+1": 541,
      "7=5": 542,
      "3=4": 543,
      "\u0000140": 544,
      "\u0000333": 545,
      "\u0000455": 546,
      "\u0000130": 547,
      "\u0000267": 548,
      "4=9": 549,
      "87-": 550,
      "\u0000657": 551,
      "2=4": 552,
      "\u000079": 553,
      "\u0000966": 554,
      "6=7": 555,
      "\u00005247": 556,
      "\u0000373": 557,
      "6=6": 558,
      "\u000084": 559,
      "\u00002086": 560,
      "\u0000647": 561,
      "\u0000103": 562,
      "\u0000342": 563,
      "2=1": 564,
      "\u0000339": 565,
      "1=9": 566,
      "\u000059": 567,
      "3=2": 568,
      "\u00006254": 569,
      "9=6": 570,
      "\u0000577": 571,
      "849": 572,
      "-52": 573,
      "\u00003120": 574,
      "410": 575,
      "-57": 576,
      "+57": 577,
      "\u0000216": 578,
      "460": 579,
      "-53": 580,
      "+52": 581,
      "\u0000502": 582,
      "+59": 583,
      "0-3": 584,
      "3=3": 585,
      "+53": 586,
      "-59": 587,
      "7=7": 588,
      "\u0000553": 589,
      "7=6": 590,
      "\u0000355": 591,
      "+60": 592,
      "9=7": 593,
      "\u0000500": 594,
      "\u0000347": 595,
      "\u0000551": 596,
      "-60": 597,
      "\u0000142": 598,
      "\u0000889": 599,
      "=44": 600,
      "\u00008244": 601,
      "2=3": 602,
      "3=5": 603,
      "\u0000173": 604,
      "\u000026": 605,
      "\u000093": 606,
      "\u0000512": 607,
      "\u00001450": 608,
      "2=2": 609,
      "6=9": 610,
      "=102": 611,
      "-55": 612,
      "=74": 613,
      "\u0000280": 614,
      "400": 615,
      "430": 616,
      "\u0000650": 617,
      "=45": 618,
      "+51": 619,
      "\u0000356": 620,
      "+55": 621,
      "2=5": 622,
      "\u0000523": 623,
      "=75": 624,
      "\u0000583": 625,
      "\u0000779": 626,
      "420": 627,
      "+62": 628,
      "\u0000290": 629,
      "9=9": 630,
      "\u0000444": 631,
      "-51": 632,
      "\u0000340": 633,
      "\u0000511": 634,
      "-62": 635,
      "+63": 636,
      "15-1": 637,
      "\u0000187": 638,
      "\u0000330": 639,
      "-67": 640,
      "\u00003382": 641,
      "\u0000396": 642,
      "-63": 643,
      "\u0000962": 644,
      "3=6": 645,
      "\u0000487": 646,
      "\u00003924+": 647,
      "7=9": 648,
      "\u0000133": 649,
      "\u0000303": 650,
      "\u0000283": 651,
      "880": 652,
      "\u0000380": 653,
      "810": 654,
      "470": 655,
      "490": 656,
      "\u0000537": 657,
      "\u0000536": 658,
      "-69": 659,
      "\u00003383": 660,
      "\u0000513": 661,
      "\u0000943": 662,
      "=101": 663,
      "\u000074": 664,
      "+22": 665,
      "846": 666,
      "\u00003984": 667,
      "\u0000557": 668,
      "473": 669,
      "\u0000200": 670,
      "\u00009330": 671,
      "\u00003779": 672,
      "\u00008588": 673,
      "\u0000326": 674,
      "-70": 675,
      "\u000069": 676,
      "790": 677,
      "500": 678,
      "\u0000277": 679,
      "463": 680,
      "\u0000351": 681,
      "2=6": 682,
      "+67": 683,
      "\u00008241": 684,
      "520": 685,
      "445": 686,
      "\u0000753": 687,
      "\u0000286": 688,
      "\u0000237": 689,
      "407": 690,
      "550": 691,
      "+69": 692,
      "493": 693,
      "570": 694,
      "544": 695,
      "\u0000310": 696,
      "\u0000287": 697,
      "+70": 698,
      "\u00008240": 699,
      "\u00006753": 700,
      "=88": 701,
      "\u0000162": 702,
      "422": 703,
      "\u0000113": 704,
      "423": 705,
      "403": 706,
      "556": 707,
      "426": 708,
      "413": 709,
      "50-1": 710,
      "417": 711,
      "568": 712,
      "412": 713,
      "590": 714,
      "444": 715,
      "419": 716,
      "\u0000476": 717,
      "416": 718,
      "462": 719,
      "448": 720,
      "402": 721,
      "432": 722,
      "591": 723,
      "820": 724,
      "600": 725,
      "\u000044": 726,
      "561": 727,
      "548": 728,
      "-72": 729,
      "\u00003983": 730,
      "411": 731,
      "433": 732,
      "492": 733,
      "\u00008243": 734,
      "565": 735,
      "421": 736,
      "566": 737,
      "406": 738,
      "-13": 739,
      "822": 740,
      "\u0000467": 741,
      "881": 742,
      "\u00004022": 743,
      "439": 744,
      "\u0000985": 745,
      "418": 746,
      "800": 747,
      "424": 748,
      "+72": 749,
      "814": 750,
      "=103": 751,
      "860": 752,
      "414": 753,
      "472": 754,
      "427": 755,
      "429": 756,
      "438": 757,
      "436": 758,
      "415": 759,
      "-11": 760,
      "\u000024": 761,
      "\u0000302": 762,
      "479": 763,
      "\u00005716": 764,
      "409": 765,
      "497": 766,
      "\u00002710": 767,
      "\u0000747": 768,
      "435": 769,
      "852": 770,
      "477": 771,
      "476": 772,
      "545": 773,
      "670": 774,
      "564": 775,
      "408": 776,
      "\u0000316": 777,
      "\u0000182": 778,
      "577": 779,
      "425": 780,
      "428": 781,
      "491": 782,
      "466": 783,
      "819": 784,
      "553": 785,
      "\u00006789": 786,
      "437": 787,
      "\u0000420": 788,
      "850": 789,
      "830": 790,
      "632": 791,
      "478": 792,
      "461": 793,
      "\u0000710": 794,
      "405": 795,
      "\u00005367": 796,
      "494": 797,
      "537": 798,
      "522": 799,
      "464": 800,
      "434": 801,
      "465": 802,
      "496": 803,
      "513": 804,
      "469": 805,
      "467": 806,
      "471": 807,
      "475": 808,
      "633": 809,
      "700": 810,
      "431": 811,
      "495": 812,
      "\u00006755": 813,
      "404": 814,
      "\u0000210": 815,
      "474": 816,
      "533": 817,
      "\u00001972": 818,
      "523": 819,
      "\u00008239": 820,
      "401": 821,
      "\u0000526": 822,
      "690": 823,
      "499": 824,
      "\u0000137": 825,
      "498": 826,
      "526": 827,
      "817": 828,
      "502": 829,
      "869": 830,
      "468": 831,
      "4+6": 832,
      "605": 833,
      "\u0000712": 834,
      "599": 835,
      "552": 836,
      "503": 837,
      "521": 838,
      "517": 839,
      "\u0000220": 840,
      "+13": 841,
      "885": 842,
      "870": 843,
      "\u0000862": 844,
      "-73": 845,
      "516": 846,
      "\u00003385": 847,
      "\u00002081": 848,
      "532": 849,
      "519": 850,
      "\u000076": 851,
      "\u0000344": 852,
      "524": 853,
      "\u00007710": 854,
      "802": 855,
      "536": 856,
      "890": 857,
      "5+6": 858,
      "\u0000190": 859,
      "\u000066": 860,
      "+73": 861,
      "539": 862,
      "538": 863,
      "514": 864,
      "\u0000381": 865,
      "509": 866,
      "515": 867,
      "833": 868,
      "573": 869,
      "507": 870,
      "886": 871,
      "803": 872,
      "129": 873,
      "768": 874,
      "638": 875,
      "551": 876,
      "518": 877,
      "\u0000176": 878,
      "636": 879,
      "527": 880,
      "840": 881,
      "622": 882,
      "506": 883,
      "841": 884,
      "554": 885,
      "534": 886,
      "842": 887,
      "666": 888,
      "5-6": 889,
      "887": 890,
      "504": 891,
      "843": 892,
      "505": 893,
      "525": 894,
      "\u00004151": 895,
      "\u0000599": 896,
      "535": 897,
      "572": 898,
      "531": 899,
      "529": 900,
      "\u00008459": 901,
      "592": 902,
      "847": 903,
      "593": 904,
      "579": 905,
      "501": 906,
      "812": 907,
      "508": 908,
      "664": 909,
      "576": 910,
      "\u0000393": 911,
      "\u0000677": 912,
      "631": 913,
      "609": 914,
      "\u00009023": 915,
      "-22": 916,
      "816": 917,
      "87-1": 918,
      "558": 919,
      "528": 920,
      "661": 921,
      "\u0000454": 922,
      "832": 923,
      "771": 924,
      "665": 925,
      "899": 926,
      "306": 927,
      "602": 928,
      "603": 929,
      "555": 930,
      "813": 931,
      "626": 932,
      "578": 933,
      "\u00003349": 934,
      "571": 935,
      "823": 936,
      "668": 937,
      "806": 938,
      "+11": 939,
      "821": 940,
      "623": 941,
      "889": 942,
      "=110": 943,
      "671": 944,
      "792": 945,
      "801": 946,
      "594": 947,
      "574": 948,
      "+32": 949,
      "863": 950,
      "596": 951,
      "772": 952,
      "595": 953,
      "773": 954,
      "777": 955,
      "\u0000211": 956,
      "575": 957,
      "637": 958,
      "837": 959,
      "883": 960,
      "606": 961,
      "882": 962,
      "809": 963,
      "701": 964,
      "598": 965,
      "624": 966,
      "884": 967,
      "601": 968,
      "639": 969,
      "607": 970,
      "368": 971,
      "807": 972,
      "804": 973,
      "\u0000141": 974,
      "628": 975,
      "815": 976,
      "597": 977,
      "604": 978,
      "900": 979,
      "621": 980,
      "608": 981,
      "\u00009583": 982,
      "672": 983,
      "\u00005022": 984,
      "826": 985,
      "829": 986,
      "805": 987,
      "\u0000169": 988,
      "625": 989,
      "761": 990,
      "861": 991,
      "862": 992,
      "793": 993,
      "836": 994,
      "629": 995,
      "726": 996,
      "635": 997,
      "839": 998,
      "892": 999,
      "699": 1000,
      "853": 1001,
      "627": 1002,
      "697": 1003,
      "\u00008372": 1004,
      "722": 1005,
      "634": 1006,
      "\u00002155": 1007,
      "=120": 1008,
      "811": 1009,
      "824": 1010,
      "872": 1011,
      "827": 1012,
      "+23": 1013,
      "818": 1014,
      "873": 1015,
      "808": 1016,
      "764": 1017,
      "\u0000412": 1018,
      "399": 1019,
      "825": 1020,
      "82+1": 1021,
      "848": 1022,
      "835": 1023
    },
    "merges": [
      "= 1",
      "\u0000 3",
      "\u0000 5",
      "- 1",
      "\u0000 1",
      "= 3",
      "+ 1",
      "= 2",
      "\u0000 2",
      "\u0000 6",
      "= 4",
      "= 5",
      "\u0000 4",
      "= 6",
      "- 2",
      "+ 2",
      "8 2",
      "= 7",
      "\u0000 9",
      "\u0000 7",
      "= 9",
      "- 3",
      "8 1",
      "+ 3",
      "8 5",
      "8 6",
      "8 7",
      "8 3",
      "4 1",
      "8 9",
      "8 0",
      "4 2",
      "4 7",
      "4 0",
      "4 3",
      "4 6",
      "5 9",
      "5 7",
      "2 0",
      "6 0",
      "4 9",
      "6 2",
      "6 7",
      "1 1",
      "5 5",
      "3 0",
      "6 9",
      "7 9",
      "5 0",
      "1 0",
      "5 3",
      "5 2",
      "7 0",
      "1 2",
      "6 3",
      "8 4",
      "7 7",
      "9 0",
      "5 1",
      "5 4",
      "7 2",
      "3 3",
      "5 6",
      "9 2",
      "1 3",
      "4 4",
      "1 6",
      "1 9",
      "0 0",
      "8 8",
      "\u0000 82",
      "6 6",
      "7 3",
      "2 2",
      "3 9",
      "5 8",
      "9 7",
      "1 7",
      "2 3",
      "4 8",
      "9 3",
      "=1 0",
      "1 5",
      "7 6",
      "4 +",
      "9 6",
      "4 5",
      "- 6",
      "9 9",
      "0 2",
      "0 3",
      "1 4",
      "1 8",
      "5 -",
      "\u00006 3",
      "+ 6",
      "2 6",
      "3 7",
      "\u00003 3",
      "2 7",
      "\u00006 41",
      "- 7",
      "3 6",
      "5 +",
      "-1 0",
      "2 9",
      "\u00006 7",
      "+1 0",
      "+ 7",
      "- 4",
      "\u00003 9",
      "3 2",
      "= 8",
      "\u0000 89",
      "\u00004 11",
      "6 -",
      "\u00005 2",
      "\u00002 7",
      "+ 4",
      "4 -",
      "\u00004 2",
      "=1 2",
      "1 -",
      "\u0000 81",
      "=1 3",
      "\u00001 2",
      "5 -1",
      "\u00005 3",
      "=2 0",
      "1 +",
      "4 +1",
      "= 81",
      "= 82",
      "7 -",
      "8 -",
      "=3 0",
      "\u00002 3",
      "\u00002 1",
      "9 1",
      "= 83",
      "9 5",
      "=4 0",
      "9 4",
      "8 +",
      "\u00002 0",
      "= -",
      "= 80",
      "=5 0",
      "6 +",
      "9 8",
      "\u00004 1",
      "5 +1",
      "=3 3",
      "\u00005 1",
      "\u00001 0",
      "5 -2",
      "\u00007 3",
      "=3 2",
      "\u0000 85",
      "=2 3",
      "\u0000 86",
      "\u000063 86",
      "\u00007 0",
      "= 89",
      "6 8",
      "3 +",
      "=2 2",
      "+2 0",
      "9 +",
      "= 85",
      "6 1",
      "= 86",
      "=6 0",
      "2 -",
      "6 4",
      "7 +",
      "= 87",
      "\u0000 83",
      "3 -",
      "=7 0",
      "\u00005 60",
      "\u00001 9",
      "-1 2",
      "-2 0",
      "7 1",
      "5 =1",
      "\u00001 4",
      "2 +",
      "\u00003 1",
      "\u00001 6",
      "5 +2",
      "7 8",
      "7 4",
      "\u00009 6",
      "\u00001 1",
      "9 -",
      "6 -1",
      "= -1",
      "\u00003 92",
      "=3 9",
      "=4 3",
      "\u00006 20",
      "=4 2",
      "=5 3",
      "7 -1",
      "6 5",
      "4 +2",
      "=5 2",
      "=4 9",
      "1 -1",
      "-3 0",
      "\u00004 0",
      "7 5",
      "\u00006 2",
      "3 4",
      "8 =1",
      "4 +3",
      "5 +3",
      "=3 7",
      "+1 2",
      "\u00007 70",
      "=5 9",
      "=2 9",
      "\u00009 9",
      "\u00005 67",
      "8 -1",
      "=3 6",
      "=9 0",
      "0 +",
      "=1 1",
      "=6 2",
      "=6 3",
      "\u0000 8",
      "=1 9",
      "7 +1",
      "3 1",
      "0 -",
      "=5 7",
      "= -2",
      "1 -2",
      "\u00001 3",
      "=6 9",
      "6 -2",
      "=3 1",
      "=9 3",
      "=2 7",
      "\u00004 10",
      "8 +1",
      "1 +1",
      "9 +1",
      "\u000082 85",
      "6 +1",
      "\u00003 2",
      "=2 1",
      "=4 7",
      "7 -2",
      "=5 6",
      "=2 6",
      "=7 2",
      "3 8",
      "+3 0",
      "=4 1",
      "\u00006 72",
      "=7 9",
      "=1 6",
      "+ 5",
      "=1 7",
      "\u00001 7",
      "=7 3",
      "6 -3",
      "=9 2",
      "- 5",
      "4 -1",
      "=6 7",
      "=4 6",
      "3 5",
      "\u00003 12",
      "3 +1",
      "9 +2",
      "\u00005 16",
      "\u00009 2",
      "\u00003 83",
      "\u00005 39",
      "\u00003 5",
      "5 -3",
      "=5 1",
      "8 -2",
      "\u00005 43",
      "=7 7",
      "\u00002 9",
      "\u00007 80",
      "=6 6",
      "\u00005 7",
      "1 +2",
      "=9 7",
      "\u000082 77",
      "\u000039 66",
      "\u00007 69",
      "=9 6",
      "4 =1",
      "3 -1",
      "\u00005 62",
      "\u00001 00",
      "\u00004 8",
      "\u00009 82",
      "1 =1",
      "\u00007 87",
      "\u00002 60",
      "\u000070 33",
      "=6 1",
      "\u00003 6",
      "2 8",
      "=7 6",
      "\u00003 4",
      "\u00003 7",
      "\u00003 79",
      "\u00006 79",
      "\u00009 5",
      "\u000067 54",
      "\u00005 0",
      "7 -3",
      "\u00009 7",
      "9 -1",
      "3 +2",
      "=3 5",
      "=3 4",
      "4 -2",
      "8 +2",
      "\u00009 53",
      "=1 00",
      "2 -1",
      "\u00007 1",
      "\u00005 59",
      "6 +2",
      "\u000082 84",
      "\u00006 62",
      "5 =2",
      "2 +1",
      "1 -3",
      "\u00006386 +",
      "\u00006 85",
      "\u00003 22",
      "2 1",
      "4 =2",
      "=7 1",
      "\u000033 81",
      "\u00002 5",
      "= -3",
      "8 =2",
      "\u00005 6",
      "3 +3",
      "0 -1",
      "\u00007 92",
      "\u00005 46",
      "9 +3",
      "\u00009 20",
      "5 =4",
      "0 +1",
      "5 62",
      "\u00004 7",
      "5 =3",
      "8 =4",
      "\u00009 90",
      "7 +2",
      "\u00002 47",
      "\u00003 97",
      "4 =4",
      "4 =3",
      "\u000052 58",
      "5 =5",
      "\u00001 57",
      "\u00009 57",
      "1 =2",
      "4 =5",
      "8 =5",
      "\u00006 1",
      "\u000063 81",
      "8 =3",
      "\u00004 6",
      "\u000053 85",
      "1 +3",
      "\u00009 42",
      "3 -2",
      "\u00005 49",
      "\u000014 42",
      "\u00006 0",
      "4 -3",
      "\u0000 87",
      "=9 9",
      "\u000073 48",
      "\u00003 0",
      "\u000051 79",
      "\u00003 82",
      "=9 1",
      "\u00005 40",
      "\u000081 0",
      "\u00003 13",
      "\u00002 43",
      "\u00005 5",
      "=1 4",
      "8 +3",
      "+ 9",
      "1 =4",
      "- 40",
      "\u00004 89",
      "\u00002 2",
      "\u00009 87",
      "+ 40",
      "- 9",
      "\u00005 90",
      "\u0000 80",
      "- 41",
      "1 =3",
      "1 =5",
      "6 +3",
      "9 -2",
      "5 =6",
      "0 -2",
      "=1 5",
      "\u00005 69",
      "\u00009 93",
      "\u00006 80",
      "8 -3",
      "- 42",
      "4 =6",
      "+ 41",
      "\u00007 62",
      "\u00001 19",
      "+ 42",
      "\u00001 12",
      "=2 5",
      "2 +2",
      "- 43",
      "\u00009 97",
      "8 =6",
      "\u00009 0",
      "+ 43",
      "\u00001 60",
      "\u00009 33",
      "6 =1",
      "\u00001 11",
      "\u00004 5",
      "1 30",
      "\u00004 9",
      "5 =7",
      "=2 4",
      "\u00002 22",
      "6 =4",
      "2 -2",
      "\u000062 20",
      "3 -3",
      "\u00006 42",
      "4 =7",
      "=9 5",
      "0 +2",
      "7 +3",
      "8 =7",
      "9 =1",
      "= 84",
      "\u00001 20",
      "\u00004 72",
      "1 =6",
      "=5 5",
      "7 =1",
      "9 -3",
      "2 +3",
      "=9 4",
      "\u00003 59",
      "\u00002 46",
      "\u00004 63",
      "9 =4",
      "\u00007 55",
      "\u00009 130",
      "- 46",
      "\u00001 10",
      "\u000027 46",
      "7 =4",
      "+ 46",
      "\u00003 90",
      "6 =2",
      "\u00006 30",
      "\u00002 8",
      "6 =3",
      "\u00008 85",
      "+ 47",
      "=5 4",
      "- 47",
      "\u00007 7",
      "\u00007 8",
      "\u00007 86",
      "\u00003 23",
      "\u00004 23",
      "\u00002 30",
      "5 =9",
      "9 =3",
      "\u00006 59",
      "\u00001 59",
      "\u00001 67",
      "+ 49",
      "- 49",
      "7 =3",
      "2 4",
      "\u00007 90",
      "\u00003 19",
      "9 =2",
      "\u00005 20",
      "=6 5",
      "\u00009 49",
      "2 -3",
      "\u00005 87",
      "7 =2",
      "1 =7",
      "+ 50",
      "- 50",
      "\u00002 52",
      "\u00004 47",
      "\u00007 562",
      "8 =9",
      "6 =5",
      "\u00002 19",
      "\u00004 3",
      "\u00001 97",
      "3 =1",
      "9 =5",
      "2 5",
      "=6 4",
      "10 +1",
      "7 =5",
      "3 =4",
      "\u00001 40",
      "\u00003 33",
      "\u00004 55",
      "\u00001 30",
      "\u00002 67",
      "4 =9",
      "87 -",
      "\u00006 57",
      "2 =4",
      "\u00007 9",
      "\u00009 66",
      "6 =7",
      "\u000052 47",
      "\u00003 73",
      "6 =6",
      "\u0000 84",
      "\u000020 86",
      "\u00006 47",
      "\u00001 03",
      "\u00003 42",
      "2 =1",
      "\u00003 39",
      "1 =9",
      "\u00005 9",
      "3 =2",
      "\u000062 54",
      "9 =6",
      "\u00005 77",
      "8 49",
      "- 52",
      "\u000031 20",
      "41 0",
      "- 57",
      "+ 57",
      "\u00002 16",
      "46 0",
      "- 53",
      "+ 52",
      "\u00005 02",
      "+ 59",
      "0 -3",
      "3 =3",
      "+ 53",
      "- 59",
      "7 =7",
      "\u00005 53",
      "7 =6",
      "\u00003 55",
      "+ 60",
      "9 =7",
      "\u00005 00",
      "\u00003 47",
      "\u00005 51",
      "- 60",
      "\u00001 42",
      "\u00008 89",
      "=4 4",
      "\u000082 44",
      "2 =3",
      "3 =5",
      "\u00001 73",
      "\u00002 6",
      "\u00009 3",
      "\u00005 12",
      "\u000014 50",
      "2 =2",
      "6 =9",
      "=10 2",
      "- 55",
      "=7 4",
      "\u00002 80",
      "40 0",
      "43 0",
      "\u00006 50",
      "=4 5",
      "+ 51",
      "\u00003 56",
      "+ 55",
      "2 =5",
      "\u00005 23",
      "=7 5",
      "\u00005 83",
      "\u00007 79",
      "42 0",
      "+ 62",
      "\u00002 90",
      "9 =9",
      "\u00004 44",
      "- 51",
      "\u00003 40",
      "\u00005 11",
      "- 62",
      "+ 63",
      "15 -1",
      "\u00001 87",
      "\u00003 30",
      "- 67",
      "\u000033 82",
      "\u00003 96",
      "- 63",
      "\u00009 62",
      "3 =6",
      "\u00004 87",
      "\u0000392 4+",
      "7 =9",
      "\u00001 33",
      "\u00003 03",
      "\u00002 83",
      "8 80",
      "\u00003 80",
      "81 0",
      "47 0",
      "49 0",
      "\u00005 37",
      "\u00005 36",
      "- 69",
      "\u000033 83",
      "\u00005 13",
      "\u00009 43",
      "=10 1",
      "\u00007 4",
      "+2 2",
      "8 46",
      "\u000039 84",
      "\u00005 57",
      "47 3",
      "\u00002 00",
      "\u000093 30",
      "\u000037 79",
      "\u000085 88",
      "\u00003 26",
      "- 70",
      "\u00006 9",
      "79 0",
      "50 0",
      "\u00002 77",
      "46 3",
      "\u00003 51",
      "2 =6",
      "+ 67",
      "\u000082 41",
      "5 20",
      "44 5",
      "\u00007 53",
      "\u00002 86",
      "\u00002 37",
      "40 7",
      "55 0",
      "+ 69",
      "49 3",
      "57 0",
      "54 4",
      "\u00003 10",
      "\u00002 87",
      "+ 70",
      "\u000082 40",
      "\u000067 53",
      "= 88",
      "\u00001 62",
      "42 2",
      "\u00001 13",
      "42 3",
      "40 3",
      "55 6",
      "42 6",
      "41 3",
      "50 -1",
      "41 7",
      "56 8",
      "41 2",
      "59 0",
      "44 4",
      "41 9",
      "\u00004 76",
      "41 6",
      "46 2",
      "44 8",
      "40 2",
      "43 2",
      "59 1",
      "82 0",
      "60 0",
      "\u00004 4",
      "56 1",
      "54 8",
      "- 72",
      "\u000039 83",
      "41 1",
      "43 3",
      "49 2",
      "\u000082 43",
      "56 5",
      "42 1",
      "56 6",
      "40 6",
      "-1 3",
      "82 2",
      "\u00004 67",
      "8 81",
      "\u000040 22",
      "43 9",
      "\u00009 85",
      "41 8",
      "80 0",
      "42 4",
      "+ 72",
      "81 4",
      "=10 3",
      "86 0",
      "41 4",
      "47 2",
      "42 7",
      "42 9",
      "43 8",
      "43 6",
      "41 5",
      "-1 1",
      "\u00002 4",
      "\u00003 02",
      "47 9",
      "\u000057 16",
      "40 9",
      "49 7",
      "\u000027 10",
      "\u00007 47",
      "43 5",
      "85 2",
      "47 7",
      "47 6",
      "54 5",
      "67 0",
      "56 4",
      "40 8",
      "\u00003 16",
      "\u00001 82",
      "57 7",
      "42 5",
      "42 8",
      "49 1",
      "46 6",
      "81 9",
      "55 3",
      "\u000067 89",
      "43 7",
      "\u00004 20",
      "85 0",
      "83 0",
      "63 2",
      "47 8",
      "46 1",
      "\u00007 10",
      "40 5",
      "\u000053 67",
      "49 4",
      "53 7",
      "52 2",
      "46 4",
      "43 4",
      "46 5",
      "49 6",
      "51 3",
      "46 9",
      "46 7",
      "47 1",
      "47 5",
      "63 3",
      "70 0",
      "43 1",
      "49 5",
      "\u000067 55",
      "40 4",
      "\u00002 10",
      "47 4",
      "53 3",
      "\u000019 72",
      "52 3",
      "\u000082 39",
      "40 1",
      "\u00005 26",
      "69 0",
      "49 9",
      "\u00001 37",
      "49 8",
      "52 6",
      "81 7",
      "50 2",
      "86 9",
      "46 8",
      "4+ 6",
      "60 5",
      "\u00007 12",
      "59 9",
      "55 2",
      "50 3",
      "52 1",
      "51 7",
      "\u00002 20",
      "+1 3",
      "8 85",
      "87 0",
      "\u000086 2",
      "- 73",
      "51 6",
      "\u000033 85",
      "\u000020 81",
      "53 2",
      "51 9",
      "\u00007 6",
      "\u00003 44",
      "52 4",
      "\u000077 10",
      "80 2",
      "53 6",
      "89 0",
      "5 +6",
      "\u00001 90",
      "\u00006 6",
      "+ 73",
      "53 9",
      "53 8",
      "51 4",
      "\u00003 81",
      "50 9",
      "51 5",
      "83 3",
      "57 3",
      "50 7",
      "8 86",
      "80 3",
      "12 9",
      "76 8",
      "63 8",
      "55 1",
      "51 8",
      "\u00001 76",
      "63 6",
      "52 7",
      "8 40",
      "62 2",
      "50 6",
      "8 41",
      "55 4",
      "53 4",
      "8 42",
      "66 6",
      "5 -6",
      "8 87",
      "50 4",
      "8 43",
      "50 5",
      "52 5",
      "\u000041 51",
      "\u00005 99",
      "53 5",
      "57 2",
      "53 1",
      "52 9",
      "\u000084 59",
      "59 2",
      "8 47",
      "59 3",
      "57 9",
      "50 1",
      "81 2",
      "50 8",
      "66 4",
      "57 6",
      "\u00003 93",
      "\u00006 77",
      "63 1",
      "60 9",
      "\u000090 23",
      "-2 2",
      "81 6",
      "87 -1",
      "55 8",
      "52 8",
      "66 1",
      "\u00004 54",
      "83 2",
      "77 1",
      "66 5",
      "89 9",
      "30 6",
      "60 2",
      "60 3",
      "55 5",
      "81 3",
      "62 6",
      "57 8",
      "\u000033 49",
      "57 1",
      "82 3",
      "66 8",
      "80 6",
      "+1 1",
      "82 1",
      "62 3",
      "8 89",
      "=1 10",
      "67 1",
      "79 2",
      "80 1",
      "59 4",
      "57 4",
      "+3 2",
      "86 3",
      "59 6",
      "77 2",
      "59 5",
      "77 3",
      "77 7",
      "\u00002 11",
      "57 5",
      "63 7",
      "83 7",
      "8 83",
      "60 6",
      "8 82",
      "80 9",
      "70 1",
      "59 8",
      "62 4",
      "8 84",
      "60 1",
      "63 9",
      "60 7",
      "36 8",
      "80 7",
      "80 4",
      "\u00001 41",
      "62 8",
      "81 5",
      "59 7",
      "60 4",
      "90 0",
      "62 1",
      "60 8",
      "\u000095 83",
      "67 2",
      "\u000050 22",
      "82 6",
      "82 9",
      "80 5",
      "\u00001 69",
      "62 5",
      "76 1",
      "86 1",
      "86 2",
      "79 3",
      "83 6",
      "62 9",
      "72 6",
      "63 5",
      "83 9",
      "89 2",
      "69 9",
      "85 3",
      "62 7",
      "69 7",
      "\u000083 72",
      "72 2",
      "63 4",
      "\u000021 55",
      "=1 20",
      "81 1",
      "82 4",
      "87 2",
      "82 7",
      "+2 3",
      "81 8",
      "87 3",
      "80 8",
      "76 4",
      "\u00004 12",
      "39 9",
      "82 5",
      "82 +1",
      "84 8",
      "83 5"
    ]
  }
}